(kicad_pcb (version 20171130) (host pcbnew 5.0.2-bee76a0~70~ubuntu16.04.1)

  (general
    (thickness 1.6)
    (drawings 7)
    (tracks 13)
    (zones 0)
    (modules 11)
    (nets 35)
  )

  (page A4)
  (layers
    (0 F.Cu signal)
    (31 B.Cu power)
    (36 B.SilkS user)
    (37 F.SilkS user)
    (38 B.Mask user)
    (39 F.Mask user)
    (40 Dwgs.User user)
    (41 Cmts.User user)
    (42 Eco1.User user)
    (43 Eco2.User user)
    (44 Edge.Cuts user)
    (45 Margin user)
    (46 B.CrtYd user)
    (47 F.CrtYd user)
    (48 B.Fab user)
    (49 F.Fab user)
  )

  (setup
    (last_trace_width 0.25)
    (trace_clearance 0.2)
    (zone_clearance 0.508)
    (zone_45_only no)
    (trace_min 0.2)
    (segment_width 0.2)
    (edge_width 0.15)
    (via_size 0.8)
    (via_drill 0.4)
    (via_min_size 0.4)
    (via_min_drill 0.3)
    (uvia_size 0.3)
    (uvia_drill 0.1)
    (uvias_allowed no)
    (uvia_min_size 0.2)
    (uvia_min_drill 0.1)
    (pcb_text_width 0.3)
    (pcb_text_size 1.5 1.5)
    (mod_edge_width 0.15)
    (mod_text_size 1 1)
    (mod_text_width 0.15)
    (pad_size 1.524 1.524)
    (pad_drill 0.762)
    (pad_to_mask_clearance 0.051)
    (solder_mask_min_width 0.25)
    (aux_axis_origin 0 0)
    (visible_elements FFFFFF7F)
    (pcbplotparams
      (layerselection 0x010fc_ffffffff)
      (usegerberextensions false)
      (usegerberattributes false)
      (usegerberadvancedattributes false)
      (creategerberjobfile false)
      (excludeedgelayer true)
      (linewidth 0.100000)
      (plotframeref false)
      (viasonmask false)
      (mode 1)
      (useauxorigin false)
      (hpglpennumber 1)
      (hpglpenspeed 20)
      (hpglpendiameter 15.000000)
      (psnegative false)
      (psa4output false)
      (plotreference true)
      (plotvalue true)
      (plotinvisibletext false)
      (padsonsilk false)
      (subtractmaskfromsilk false)
      (outputformat 1)
      (mirror false)
      (drillshape 1)
      (scaleselection 1)
      (outputdirectory ""))
  )

  (net 0 "")
  (net 1 "Net-(D1-Pad2)")
  (net 2 GND)
  (net 3 "Net-(D2-Pad2)")
  (net 4 "Net-(J1-Pad1)")
  (net 5 "Net-(J1-Pad2)")
  (net 6 "Net-(J1-Pad3)")
  (net 7 "Net-(J1-Pad4)")
  (net 8 "Net-(J1-Pad5)")
  (net 9 "Net-(J1-Pad6)")
  (net 10 "Net-(J1-Pad7)")
  (net 11 "Net-(J1-Pad8)")
  (net 12 "Net-(J2-Pad3)")
  (net 13 "Net-(J2-Pad4)")
  (net 14 "Net-(J2-Pad5)")
  (net 15 "Net-(J2-Pad6)")
  (net 16 "Net-(J2-Pad8)")
  (net 17 "Net-(J2-Pad9)")
  (net 18 "Net-(J2-Pad10)")
  (net 19 "Net-(J4-Pad1)")
  (net 20 "Net-(J4-Pad2)")
  (net 21 "Net-(J4-Pad3)")
  (net 22 "Net-(J4-Pad4)")
  (net 23 "Net-(J4-Pad5)")
  (net 24 "Net-(J4-Pad6)")
  (net 25 "Net-(J5-Pad8)")
  (net 26 "Net-(J5-Pad7)")
  (net 27 "Net-(J5-Pad6)")
  (net 28 "Net-(J5-Pad5)")
  (net 29 VCC)
  (net 30 "Net-(J5-Pad3)")
  (net 31 "Net-(J5-Pad2)")
  (net 32 "Net-(J5-Pad1)")
  (net 33 "Net-(D1-Pad1)")
  (net 34 "Net-(D2-Pad1)")

  (net_class Default "This is the default net class."
    (clearance 0.2)
    (trace_width 0.25)
    (via_dia 0.8)
    (via_drill 0.4)
    (uvia_dia 0.3)
    (uvia_drill 0.1)
    (add_net GND)
    (add_net "Net-(D1-Pad1)")
    (add_net "Net-(D1-Pad2)")
    (add_net "Net-(D2-Pad1)")
    (add_net "Net-(D2-Pad2)")
    (add_net "Net-(J1-Pad1)")
    (add_net "Net-(J1-Pad2)")
    (add_net "Net-(J1-Pad3)")
    (add_net "Net-(J1-Pad4)")
    (add_net "Net-(J1-Pad5)")
    (add_net "Net-(J1-Pad6)")
    (add_net "Net-(J1-Pad7)")
    (add_net "Net-(J1-Pad8)")
    (add_net "Net-(J2-Pad10)")
    (add_net "Net-(J2-Pad3)")
    (add_net "Net-(J2-Pad4)")
    (add_net "Net-(J2-Pad5)")
    (add_net "Net-(J2-Pad6)")
    (add_net "Net-(J2-Pad8)")
    (add_net "Net-(J2-Pad9)")
    (add_net "Net-(J4-Pad1)")
    (add_net "Net-(J4-Pad2)")
    (add_net "Net-(J4-Pad3)")
    (add_net "Net-(J4-Pad4)")
    (add_net "Net-(J4-Pad5)")
    (add_net "Net-(J4-Pad6)")
    (add_net "Net-(J5-Pad1)")
    (add_net "Net-(J5-Pad2)")
    (add_net "Net-(J5-Pad3)")
    (add_net "Net-(J5-Pad5)")
    (add_net "Net-(J5-Pad6)")
    (add_net "Net-(J5-Pad7)")
    (add_net "Net-(J5-Pad8)")
    (add_net VCC)
  )

  (module LED_THT:LED_D5.0mm (layer F.Cu) (tedit 5995936A) (tstamp 5CC1980C)
    (at 125.095 85.09 180)
    (descr "LED, diameter 5.0mm, 2 pins, http://cdn-reichelt.de/documents/datenblatt/A500/LL-504BC2E-009.pdf")
    (tags "LED diameter 5.0mm 2 pins")
    (path /5CC16F91)
    (fp_text reference D1 (at -1.905 -4.445 180) (layer F.SilkS)
      (effects (font (size 1 1) (thickness 0.15)))
    )
    (fp_text value White (at 1.27 3.96 180) (layer F.Fab)
      (effects (font (size 1 1) (thickness 0.15)))
    )
    (fp_text user %R (at 1.25 0 180) (layer F.Fab)
      (effects (font (size 0.8 0.8) (thickness 0.2)))
    )
    (fp_line (start 4.5 -3.25) (end -1.95 -3.25) (layer F.CrtYd) (width 0.05))
    (fp_line (start 4.5 3.25) (end 4.5 -3.25) (layer F.CrtYd) (width 0.05))
    (fp_line (start -1.95 3.25) (end 4.5 3.25) (layer F.CrtYd) (width 0.05))
    (fp_line (start -1.95 -3.25) (end -1.95 3.25) (layer F.CrtYd) (width 0.05))
    (fp_line (start -1.29 -1.545) (end -1.29 1.545) (layer F.SilkS) (width 0.12))
    (fp_line (start -1.23 -1.469694) (end -1.23 1.469694) (layer F.Fab) (width 0.1))
    (fp_circle (center 1.27 0) (end 3.77 0) (layer F.SilkS) (width 0.12))
    (fp_circle (center 1.27 0) (end 3.77 0) (layer F.Fab) (width 0.1))
    (fp_arc (start 1.27 0) (end -1.29 1.54483) (angle -148.9) (layer F.SilkS) (width 0.12))
    (fp_arc (start 1.27 0) (end -1.29 -1.54483) (angle 148.9) (layer F.SilkS) (width 0.12))
    (fp_arc (start 1.27 0) (end -1.23 -1.469694) (angle 299.1) (layer F.Fab) (width 0.1))
    (pad 2 thru_hole circle (at 2.54 0 180) (size 1.8 1.8) (drill 0.9) (layers *.Cu *.Mask)
      (net 1 "Net-(D1-Pad2)"))
    (pad 1 thru_hole rect (at 0 0 180) (size 1.8 1.8) (drill 0.9) (layers *.Cu *.Mask)
      (net 33 "Net-(D1-Pad1)"))
    (model ${KISYS3DMOD}/LED_THT.3dshapes/LED_D5.0mm.wrl
      (at (xyz 0 0 0))
      (scale (xyz 1 1 1))
      (rotate (xyz 0 0 0))
    )
  )

  (module LED_THT:LED_D5.0mm (layer F.Cu) (tedit 5995936A) (tstamp 5CC1981E)
    (at 125.095 77.47 180)
    (descr "LED, diameter 5.0mm, 2 pins, http://cdn-reichelt.de/documents/datenblatt/A500/LL-504BC2E-009.pdf")
    (tags "LED diameter 5.0mm 2 pins")
    (path /5CC16ED6)
    (fp_text reference D2 (at -1.905 4.445 180) (layer F.SilkS)
      (effects (font (size 1 1) (thickness 0.15)))
    )
    (fp_text value Red (at 1.27 3.96 180) (layer F.Fab)
      (effects (font (size 1 1) (thickness 0.15)))
    )
    (fp_arc (start 1.27 0) (end -1.23 -1.469694) (angle 299.1) (layer F.Fab) (width 0.1))
    (fp_arc (start 1.27 0) (end -1.29 -1.54483) (angle 148.9) (layer F.SilkS) (width 0.12))
    (fp_arc (start 1.27 0) (end -1.29 1.54483) (angle -148.9) (layer F.SilkS) (width 0.12))
    (fp_circle (center 1.27 0) (end 3.77 0) (layer F.Fab) (width 0.1))
    (fp_circle (center 1.27 0) (end 3.77 0) (layer F.SilkS) (width 0.12))
    (fp_line (start -1.23 -1.469694) (end -1.23 1.469694) (layer F.Fab) (width 0.1))
    (fp_line (start -1.29 -1.545) (end -1.29 1.545) (layer F.SilkS) (width 0.12))
    (fp_line (start -1.95 -3.25) (end -1.95 3.25) (layer F.CrtYd) (width 0.05))
    (fp_line (start -1.95 3.25) (end 4.5 3.25) (layer F.CrtYd) (width 0.05))
    (fp_line (start 4.5 3.25) (end 4.5 -3.25) (layer F.CrtYd) (width 0.05))
    (fp_line (start 4.5 -3.25) (end -1.95 -3.25) (layer F.CrtYd) (width 0.05))
    (fp_text user %R (at 1.25 0 180) (layer F.Fab)
      (effects (font (size 0.8 0.8) (thickness 0.2)))
    )
    (pad 1 thru_hole rect (at 0 0 180) (size 1.8 1.8) (drill 0.9) (layers *.Cu *.Mask)
      (net 34 "Net-(D2-Pad1)"))
    (pad 2 thru_hole circle (at 2.54 0 180) (size 1.8 1.8) (drill 0.9) (layers *.Cu *.Mask)
      (net 3 "Net-(D2-Pad2)"))
    (model ${KISYS3DMOD}/LED_THT.3dshapes/LED_D5.0mm.wrl
      (at (xyz 0 0 0))
      (scale (xyz 1 1 1))
      (rotate (xyz 0 0 0))
    )
  )

  (module Connector_PinHeader_2.54mm:PinHeader_1x08_P2.54mm_Vertical (layer F.Cu) (tedit 5CC1777C) (tstamp 5CC1983A)
    (at 114.935 57.15)
    (descr "Through hole straight pin header, 1x08, 2.54mm pitch, single row")
    (tags "Through hole pin header THT 1x08 2.54mm single row")
    (path /5CC166AE)
    (fp_text reference J1 (at 3.175 17.78) (layer F.SilkS)
      (effects (font (size 1 1) (thickness 0.15)))
    )
    (fp_text value Conn_01x08_Male (at 0 20.11) (layer F.Fab)
      (effects (font (size 1 1) (thickness 0.15)))
    )
    (fp_line (start -0.635 -1.27) (end 1.27 -1.27) (layer F.Fab) (width 0.1))
    (fp_line (start 1.27 -1.27) (end 1.27 19.05) (layer F.Fab) (width 0.1))
    (fp_line (start 1.27 19.05) (end -1.27 19.05) (layer F.Fab) (width 0.1))
    (fp_line (start -1.27 19.05) (end -1.27 -0.635) (layer F.Fab) (width 0.1))
    (fp_line (start -1.27 -0.635) (end -0.635 -1.27) (layer F.Fab) (width 0.1))
    (fp_line (start -1.33 19.11) (end 1.33 19.11) (layer F.SilkS) (width 0.12))
    (fp_line (start -1.33 1.27) (end -1.33 19.11) (layer F.SilkS) (width 0.12))
    (fp_line (start 1.33 1.27) (end 1.33 19.11) (layer F.SilkS) (width 0.12))
    (fp_line (start -1.33 1.27) (end 1.33 1.27) (layer F.SilkS) (width 0.12))
    (fp_line (start -1.33 0) (end -1.33 -1.33) (layer F.SilkS) (width 0.12))
    (fp_line (start -1.33 -1.33) (end 0 -1.33) (layer F.SilkS) (width 0.12))
    (fp_line (start -1.8 -1.8) (end -1.8 19.55) (layer F.CrtYd) (width 0.05))
    (fp_line (start -1.8 19.55) (end 1.8 19.55) (layer F.CrtYd) (width 0.05))
    (fp_line (start 1.8 19.55) (end 1.8 -1.8) (layer F.CrtYd) (width 0.05))
    (fp_line (start 1.8 -1.8) (end -1.8 -1.8) (layer F.CrtYd) (width 0.05))
    (fp_text user %R (at 0 8.89 90) (layer F.Fab)
      (effects (font (size 1 1) (thickness 0.15)))
    )
    (pad 1 thru_hole rect (at 0 0) (size 1.7 1.7) (drill 1) (layers *.Cu *.Mask)
      (net 4 "Net-(J1-Pad1)"))
    (pad 2 thru_hole oval (at 0 2.54) (size 1.7 1.7) (drill 1) (layers *.Cu *.Mask)
      (net 5 "Net-(J1-Pad2)"))
    (pad 3 thru_hole oval (at 0 5.08) (size 1.7 1.7) (drill 1) (layers *.Cu *.Mask)
      (net 6 "Net-(J1-Pad3)"))
    (pad 4 thru_hole oval (at 0 7.62) (size 1.7 1.7) (drill 1) (layers *.Cu *.Mask)
      (net 7 "Net-(J1-Pad4)"))
    (pad 5 thru_hole oval (at 0 10.16) (size 1.7 1.7) (drill 1) (layers *.Cu *.Mask)
      (net 8 "Net-(J1-Pad5)"))
    (pad 6 thru_hole oval (at 0 12.7) (size 1.7 1.7) (drill 1) (layers *.Cu *.Mask)
      (net 9 "Net-(J1-Pad6)"))
    (pad 7 thru_hole oval (at 0 15.24) (size 1.7 1.7) (drill 1) (layers *.Cu *.Mask)
      (net 10 "Net-(J1-Pad7)"))
    (pad 8 thru_hole oval (at 0 17.78) (size 1.7 1.7) (drill 1) (layers *.Cu *.Mask)
      (net 11 "Net-(J1-Pad8)"))
    (model ${KISYS3DMOD}/Connector_PinHeader_2.54mm.3dshapes/PinHeader_1x08_P2.54mm_Vertical.wrl
      (at (xyz 0 0 0))
      (scale (xyz 1 1 1))
      (rotate (xyz 0 0 0))
    )
  )

  (module Connector_PinHeader_2.54mm:PinHeader_1x10_P2.54mm_Vertical (layer F.Cu) (tedit 59FED5CC) (tstamp 5CC19858)
    (at 114.935 80.01)
    (descr "Through hole straight pin header, 1x10, 2.54mm pitch, single row")
    (tags "Through hole pin header THT 1x10 2.54mm single row")
    (path /5CC1676E)
    (fp_text reference J2 (at 3.175 -1.27) (layer F.SilkS)
      (effects (font (size 1 1) (thickness 0.15)))
    )
    (fp_text value Conn_01x10_Male (at 0 25.19) (layer F.Fab)
      (effects (font (size 1 1) (thickness 0.15)))
    )
    (fp_line (start -0.635 -1.27) (end 1.27 -1.27) (layer F.Fab) (width 0.1))
    (fp_line (start 1.27 -1.27) (end 1.27 24.13) (layer F.Fab) (width 0.1))
    (fp_line (start 1.27 24.13) (end -1.27 24.13) (layer F.Fab) (width 0.1))
    (fp_line (start -1.27 24.13) (end -1.27 -0.635) (layer F.Fab) (width 0.1))
    (fp_line (start -1.27 -0.635) (end -0.635 -1.27) (layer F.Fab) (width 0.1))
    (fp_line (start -1.33 24.19) (end 1.33 24.19) (layer F.SilkS) (width 0.12))
    (fp_line (start -1.33 1.27) (end -1.33 24.19) (layer F.SilkS) (width 0.12))
    (fp_line (start 1.33 1.27) (end 1.33 24.19) (layer F.SilkS) (width 0.12))
    (fp_line (start -1.33 1.27) (end 1.33 1.27) (layer F.SilkS) (width 0.12))
    (fp_line (start -1.33 0) (end -1.33 -1.33) (layer F.SilkS) (width 0.12))
    (fp_line (start -1.33 -1.33) (end 0 -1.33) (layer F.SilkS) (width 0.12))
    (fp_line (start -1.8 -1.8) (end -1.8 24.65) (layer F.CrtYd) (width 0.05))
    (fp_line (start -1.8 24.65) (end 1.8 24.65) (layer F.CrtYd) (width 0.05))
    (fp_line (start 1.8 24.65) (end 1.8 -1.8) (layer F.CrtYd) (width 0.05))
    (fp_line (start 1.8 -1.8) (end -1.8 -1.8) (layer F.CrtYd) (width 0.05))
    (fp_text user %R (at 0 11.43 90) (layer F.Fab)
      (effects (font (size 1 1) (thickness 0.15)))
    )
    (pad 1 thru_hole rect (at 0 0) (size 1.7 1.7) (drill 1) (layers *.Cu *.Mask)
      (net 3 "Net-(D2-Pad2)"))
    (pad 2 thru_hole oval (at 0 2.54) (size 1.7 1.7) (drill 1) (layers *.Cu *.Mask)
      (net 1 "Net-(D1-Pad2)"))
    (pad 3 thru_hole oval (at 0 5.08) (size 1.7 1.7) (drill 1) (layers *.Cu *.Mask)
      (net 12 "Net-(J2-Pad3)"))
    (pad 4 thru_hole oval (at 0 7.62) (size 1.7 1.7) (drill 1) (layers *.Cu *.Mask)
      (net 13 "Net-(J2-Pad4)"))
    (pad 5 thru_hole oval (at 0 10.16) (size 1.7 1.7) (drill 1) (layers *.Cu *.Mask)
      (net 14 "Net-(J2-Pad5)"))
    (pad 6 thru_hole oval (at 0 12.7) (size 1.7 1.7) (drill 1) (layers *.Cu *.Mask)
      (net 15 "Net-(J2-Pad6)"))
    (pad 7 thru_hole oval (at 0 15.24) (size 1.7 1.7) (drill 1) (layers *.Cu *.Mask)
      (net 2 GND))
    (pad 8 thru_hole oval (at 0 17.78) (size 1.7 1.7) (drill 1) (layers *.Cu *.Mask)
      (net 16 "Net-(J2-Pad8)"))
    (pad 9 thru_hole oval (at 0 20.32) (size 1.7 1.7) (drill 1) (layers *.Cu *.Mask)
      (net 17 "Net-(J2-Pad9)"))
    (pad 10 thru_hole oval (at 0 22.86) (size 1.7 1.7) (drill 1) (layers *.Cu *.Mask)
      (net 18 "Net-(J2-Pad10)"))
    (model ${KISYS3DMOD}/Connector_PinHeader_2.54mm.3dshapes/PinHeader_1x10_P2.54mm_Vertical.wrl
      (at (xyz 0 0 0))
      (scale (xyz 1 1 1))
      (rotate (xyz 0 0 0))
    )
  )

  (module 1-1634612-0:TE_1-1634612-0 (layer F.Cu) (tedit 5CC17776) (tstamp 5CC16E30)
    (at 135.255 62.23 90)
    (path /5CC16B8A)
    (fp_text reference J3 (at -2.54 -6.985 180) (layer F.SilkS)
      (effects (font (size 1.00199 1.00199) (thickness 0.15)))
    )
    (fp_text value TE_1-1634612-0 (at -2.54 0 180) (layer F.SilkS) hide
      (effects (font (size 1.0017 1.0017) (thickness 0.05)))
    )
    (fp_line (start -1 7.35) (end -1 -7.35) (layer Eco2.User) (width 0.127))
    (fp_line (start -1 -7.35) (end 7.3 -7.35) (layer Eco2.User) (width 0.127))
    (fp_line (start 7.3 -7.35) (end 7.3 7.35) (layer Eco2.User) (width 0.127))
    (fp_line (start 7.3 7.35) (end -1 7.35) (layer Eco2.User) (width 0.127))
    (fp_line (start 7.62 -5.5) (end 21.38 -5.5) (layer Eco2.User) (width 0.127))
    (fp_line (start 21.38 -5.5) (end 21.38 5.5) (layer Eco2.User) (width 0.127))
    (fp_line (start 21.38 5.5) (end 7.62 5.5) (layer Eco2.User) (width 0.127))
    (fp_line (start 21.59 -4.8) (end 33.9 -4.8) (layer Eco2.User) (width 0.127))
    (fp_line (start 33.9 -4.8) (end 33.9 4.8) (layer Eco2.User) (width 0.127))
    (fp_line (start 33.9 4.8) (end 21.59 4.8) (layer Eco2.User) (width 0.127))
    (fp_line (start -1 -7.35) (end 7.3 -7.35) (layer F.SilkS) (width 0.127))
    (fp_line (start 7.3 -7.35) (end 7.3 7.35) (layer F.SilkS) (width 0.127))
    (fp_line (start 7.3 7.35) (end -1 7.35) (layer F.SilkS) (width 0.127))
    (fp_line (start 7.62 -5.5) (end 21.38 -5.5) (layer F.SilkS) (width 0.127))
    (fp_line (start 21.38 -5.5) (end 21.38 5.5) (layer F.SilkS) (width 0.127))
    (fp_line (start 21.38 5.5) (end 7.62 5.5) (layer F.SilkS) (width 0.127))
    (fp_line (start 21.59 -4.8) (end 33.9 -4.8) (layer F.SilkS) (width 0.127))
    (fp_line (start 33.9 -4.8) (end 33.9 4.8) (layer F.SilkS) (width 0.127))
    (fp_line (start 33.9 4.8) (end 21.59 4.8) (layer F.SilkS) (width 0.127))
    (fp_line (start -1 7.35) (end -1 1.65) (layer F.SilkS) (width 0.127))
    (fp_line (start -1 -7.35) (end -1 -3.85) (layer F.SilkS) (width 0.127))
    (fp_circle (center -1.1 0) (end -1 0) (layer F.SilkS) (width 0.2))
    (fp_line (start -1.25 7.6) (end 7.55 7.6) (layer Eco1.User) (width 0.05))
    (fp_line (start 7.55 7.6) (end 7.55 5.75) (layer Eco1.User) (width 0.05))
    (fp_line (start 7.55 5.75) (end 34.15 5.75) (layer Eco1.User) (width 0.05))
    (fp_line (start 34.15 5.75) (end 34.15 -5.75) (layer Eco1.User) (width 0.05))
    (fp_line (start 34.15 -5.75) (end 7.55 -5.75) (layer Eco1.User) (width 0.05))
    (fp_line (start 7.55 -5.75) (end 7.55 -7.6) (layer Eco1.User) (width 0.05))
    (fp_line (start 7.55 -7.6) (end -1.25 -7.6) (layer Eco1.User) (width 0.05))
    (fp_line (start -1.25 -7.6) (end -1.25 7.6) (layer Eco1.User) (width 0.05))
    (pad 1 thru_hole rect (at 0 0) (size 1.398 1.398) (drill 0.89) (layers *.Cu *.Mask)
      (net 8 "Net-(J1-Pad5)"))
    (pad 2 thru_hole circle (at 0 -2.54) (size 1.398 1.398) (drill 0.89) (layers *.Cu *.Mask)
      (net 2 GND))
    (pad S1 thru_hole circle (at 5.08 -5.08) (size 3.015 3.015) (drill 2.01) (layers *.Cu *.Mask))
    (pad S2 thru_hole circle (at 5.08 5.08) (size 3.015 3.015) (drill 2.01) (layers *.Cu *.Mask))
  )

  (module Connector_PinHeader_2.54mm:PinHeader_1x06_P2.54mm_Vertical (layer F.Cu) (tedit 59FED5CC) (tstamp 5CC16A14)
    (at 155.575 57.15)
    (descr "Through hole straight pin header, 1x06, 2.54mm pitch, single row")
    (tags "Through hole pin header THT 1x06 2.54mm single row")
    (path /5CC17598)
    (fp_text reference J4 (at -3.175 13.335) (layer F.SilkS)
      (effects (font (size 1 1) (thickness 0.15)))
    )
    (fp_text value Conn_01x06_Male (at 0 15.03) (layer F.Fab)
      (effects (font (size 1 1) (thickness 0.15)))
    )
    (fp_line (start -0.635 -1.27) (end 1.27 -1.27) (layer F.Fab) (width 0.1))
    (fp_line (start 1.27 -1.27) (end 1.27 13.97) (layer F.Fab) (width 0.1))
    (fp_line (start 1.27 13.97) (end -1.27 13.97) (layer F.Fab) (width 0.1))
    (fp_line (start -1.27 13.97) (end -1.27 -0.635) (layer F.Fab) (width 0.1))
    (fp_line (start -1.27 -0.635) (end -0.635 -1.27) (layer F.Fab) (width 0.1))
    (fp_line (start -1.33 14.03) (end 1.33 14.03) (layer F.SilkS) (width 0.12))
    (fp_line (start -1.33 1.27) (end -1.33 14.03) (layer F.SilkS) (width 0.12))
    (fp_line (start 1.33 1.27) (end 1.33 14.03) (layer F.SilkS) (width 0.12))
    (fp_line (start -1.33 1.27) (end 1.33 1.27) (layer F.SilkS) (width 0.12))
    (fp_line (start -1.33 0) (end -1.33 -1.33) (layer F.SilkS) (width 0.12))
    (fp_line (start -1.33 -1.33) (end 0 -1.33) (layer F.SilkS) (width 0.12))
    (fp_line (start -1.8 -1.8) (end -1.8 14.5) (layer F.CrtYd) (width 0.05))
    (fp_line (start -1.8 14.5) (end 1.8 14.5) (layer F.CrtYd) (width 0.05))
    (fp_line (start 1.8 14.5) (end 1.8 -1.8) (layer F.CrtYd) (width 0.05))
    (fp_line (start 1.8 -1.8) (end -1.8 -1.8) (layer F.CrtYd) (width 0.05))
    (fp_text user %R (at 0 6.35 90) (layer F.Fab)
      (effects (font (size 1 1) (thickness 0.15)))
    )
    (pad 1 thru_hole rect (at 0 0) (size 1.7 1.7) (drill 1) (layers *.Cu *.Mask)
      (net 19 "Net-(J4-Pad1)"))
    (pad 2 thru_hole oval (at 0 2.54) (size 1.7 1.7) (drill 1) (layers *.Cu *.Mask)
      (net 20 "Net-(J4-Pad2)"))
    (pad 3 thru_hole oval (at 0 5.08) (size 1.7 1.7) (drill 1) (layers *.Cu *.Mask)
      (net 21 "Net-(J4-Pad3)"))
    (pad 4 thru_hole oval (at 0 7.62) (size 1.7 1.7) (drill 1) (layers *.Cu *.Mask)
      (net 22 "Net-(J4-Pad4)"))
    (pad 5 thru_hole oval (at 0 10.16) (size 1.7 1.7) (drill 1) (layers *.Cu *.Mask)
      (net 23 "Net-(J4-Pad5)"))
    (pad 6 thru_hole oval (at 0 12.7) (size 1.7 1.7) (drill 1) (layers *.Cu *.Mask)
      (net 24 "Net-(J4-Pad6)"))
    (model ${KISYS3DMOD}/Connector_PinHeader_2.54mm.3dshapes/PinHeader_1x06_P2.54mm_Vertical.wrl
      (at (xyz 0 0 0))
      (scale (xyz 1 1 1))
      (rotate (xyz 0 0 0))
    )
  )

  (module Connector_PinHeader_2.54mm:PinHeader_1x08_P2.54mm_Vertical (layer F.Cu) (tedit 59FED5CC) (tstamp 5CC198B4)
    (at 155.575 74.93)
    (descr "Through hole straight pin header, 1x08, 2.54mm pitch, single row")
    (tags "Through hole pin header THT 1x08 2.54mm single row")
    (path /5CC167CC)
    (fp_text reference J5 (at -3.175 -0.635) (layer F.SilkS)
      (effects (font (size 1 1) (thickness 0.15)))
    )
    (fp_text value Conn_01x08_Male (at 0 20.11) (layer F.Fab)
      (effects (font (size 1 1) (thickness 0.15)))
    )
    (fp_text user %R (at 0 8.89 90) (layer F.Fab)
      (effects (font (size 1 1) (thickness 0.15)))
    )
    (fp_line (start 1.8 -1.8) (end -1.8 -1.8) (layer F.CrtYd) (width 0.05))
    (fp_line (start 1.8 19.55) (end 1.8 -1.8) (layer F.CrtYd) (width 0.05))
    (fp_line (start -1.8 19.55) (end 1.8 19.55) (layer F.CrtYd) (width 0.05))
    (fp_line (start -1.8 -1.8) (end -1.8 19.55) (layer F.CrtYd) (width 0.05))
    (fp_line (start -1.33 -1.33) (end 0 -1.33) (layer F.SilkS) (width 0.12))
    (fp_line (start -1.33 0) (end -1.33 -1.33) (layer F.SilkS) (width 0.12))
    (fp_line (start -1.33 1.27) (end 1.33 1.27) (layer F.SilkS) (width 0.12))
    (fp_line (start 1.33 1.27) (end 1.33 19.11) (layer F.SilkS) (width 0.12))
    (fp_line (start -1.33 1.27) (end -1.33 19.11) (layer F.SilkS) (width 0.12))
    (fp_line (start -1.33 19.11) (end 1.33 19.11) (layer F.SilkS) (width 0.12))
    (fp_line (start -1.27 -0.635) (end -0.635 -1.27) (layer F.Fab) (width 0.1))
    (fp_line (start -1.27 19.05) (end -1.27 -0.635) (layer F.Fab) (width 0.1))
    (fp_line (start 1.27 19.05) (end -1.27 19.05) (layer F.Fab) (width 0.1))
    (fp_line (start 1.27 -1.27) (end 1.27 19.05) (layer F.Fab) (width 0.1))
    (fp_line (start -0.635 -1.27) (end 1.27 -1.27) (layer F.Fab) (width 0.1))
    (pad 8 thru_hole oval (at 0 17.78) (size 1.7 1.7) (drill 1) (layers *.Cu *.Mask)
      (net 25 "Net-(J5-Pad8)"))
    (pad 7 thru_hole oval (at 0 15.24) (size 1.7 1.7) (drill 1) (layers *.Cu *.Mask)
      (net 26 "Net-(J5-Pad7)"))
    (pad 6 thru_hole oval (at 0 12.7) (size 1.7 1.7) (drill 1) (layers *.Cu *.Mask)
      (net 27 "Net-(J5-Pad6)"))
    (pad 5 thru_hole oval (at 0 10.16) (size 1.7 1.7) (drill 1) (layers *.Cu *.Mask)
      (net 28 "Net-(J5-Pad5)"))
    (pad 4 thru_hole oval (at 0 7.62) (size 1.7 1.7) (drill 1) (layers *.Cu *.Mask)
      (net 29 VCC))
    (pad 3 thru_hole oval (at 0 5.08) (size 1.7 1.7) (drill 1) (layers *.Cu *.Mask)
      (net 30 "Net-(J5-Pad3)"))
    (pad 2 thru_hole oval (at 0 2.54) (size 1.7 1.7) (drill 1) (layers *.Cu *.Mask)
      (net 31 "Net-(J5-Pad2)"))
    (pad 1 thru_hole rect (at 0 0) (size 1.7 1.7) (drill 1) (layers *.Cu *.Mask)
      (net 32 "Net-(J5-Pad1)"))
    (model ${KISYS3DMOD}/Connector_PinHeader_2.54mm.3dshapes/PinHeader_1x08_P2.54mm_Vertical.wrl
      (at (xyz 0 0 0))
      (scale (xyz 1 1 1))
      (rotate (xyz 0 0 0))
    )
  )

  (module Resistor_THT:R_Axial_DIN0207_L6.3mm_D2.5mm_P10.16mm_Horizontal (layer F.Cu) (tedit 5AE5139B) (tstamp 5CC16CA4)
    (at 130.175 85.09)
    (descr "Resistor, Axial_DIN0207 series, Axial, Horizontal, pin pitch=10.16mm, 0.25W = 1/4W, length*diameter=6.3*2.5mm^2, http://cdn-reichelt.de/documents/datenblatt/B400/1_4W%23YAG.pdf")
    (tags "Resistor Axial_DIN0207 series Axial Horizontal pin pitch 10.16mm 0.25W = 1/4W length 6.3mm diameter 2.5mm")
    (path /5CC16E40)
    (fp_text reference R1 (at 5.08 -2.37) (layer F.SilkS)
      (effects (font (size 1 1) (thickness 0.15)))
    )
    (fp_text value 330R (at 5.08 2.37) (layer F.Fab)
      (effects (font (size 1 1) (thickness 0.15)))
    )
    (fp_text user %R (at 5.08 0) (layer F.Fab)
      (effects (font (size 1 1) (thickness 0.15)))
    )
    (fp_line (start 11.21 -1.5) (end -1.05 -1.5) (layer F.CrtYd) (width 0.05))
    (fp_line (start 11.21 1.5) (end 11.21 -1.5) (layer F.CrtYd) (width 0.05))
    (fp_line (start -1.05 1.5) (end 11.21 1.5) (layer F.CrtYd) (width 0.05))
    (fp_line (start -1.05 -1.5) (end -1.05 1.5) (layer F.CrtYd) (width 0.05))
    (fp_line (start 9.12 0) (end 8.35 0) (layer F.SilkS) (width 0.12))
    (fp_line (start 1.04 0) (end 1.81 0) (layer F.SilkS) (width 0.12))
    (fp_line (start 8.35 -1.37) (end 1.81 -1.37) (layer F.SilkS) (width 0.12))
    (fp_line (start 8.35 1.37) (end 8.35 -1.37) (layer F.SilkS) (width 0.12))
    (fp_line (start 1.81 1.37) (end 8.35 1.37) (layer F.SilkS) (width 0.12))
    (fp_line (start 1.81 -1.37) (end 1.81 1.37) (layer F.SilkS) (width 0.12))
    (fp_line (start 10.16 0) (end 8.23 0) (layer F.Fab) (width 0.1))
    (fp_line (start 0 0) (end 1.93 0) (layer F.Fab) (width 0.1))
    (fp_line (start 8.23 -1.25) (end 1.93 -1.25) (layer F.Fab) (width 0.1))
    (fp_line (start 8.23 1.25) (end 8.23 -1.25) (layer F.Fab) (width 0.1))
    (fp_line (start 1.93 1.25) (end 8.23 1.25) (layer F.Fab) (width 0.1))
    (fp_line (start 1.93 -1.25) (end 1.93 1.25) (layer F.Fab) (width 0.1))
    (pad 2 thru_hole oval (at 10.16 0) (size 1.6 1.6) (drill 0.8) (layers *.Cu *.Mask)
      (net 2 GND))
    (pad 1 thru_hole circle (at 0 0) (size 1.6 1.6) (drill 0.8) (layers *.Cu *.Mask)
      (net 33 "Net-(D1-Pad1)"))
    (model ${KISYS3DMOD}/Resistor_THT.3dshapes/R_Axial_DIN0207_L6.3mm_D2.5mm_P10.16mm_Horizontal.wrl
      (at (xyz 0 0 0))
      (scale (xyz 1 1 1))
      (rotate (xyz 0 0 0))
    )
  )

  (module Resistor_THT:R_Axial_DIN0207_L6.3mm_D2.5mm_P10.16mm_Horizontal (layer F.Cu) (tedit 5AE5139B) (tstamp 5CC198E2)
    (at 130.175 77.47)
    (descr "Resistor, Axial_DIN0207 series, Axial, Horizontal, pin pitch=10.16mm, 0.25W = 1/4W, length*diameter=6.3*2.5mm^2, http://cdn-reichelt.de/documents/datenblatt/B400/1_4W%23YAG.pdf")
    (tags "Resistor Axial_DIN0207 series Axial Horizontal pin pitch 10.16mm 0.25W = 1/4W length 6.3mm diameter 2.5mm")
    (path /5CC16DBA)
    (fp_text reference R2 (at 5.08 -2.37) (layer F.SilkS)
      (effects (font (size 1 1) (thickness 0.15)))
    )
    (fp_text value 330R (at 5.08 2.37) (layer F.Fab)
      (effects (font (size 1 1) (thickness 0.15)))
    )
    (fp_line (start 1.93 -1.25) (end 1.93 1.25) (layer F.Fab) (width 0.1))
    (fp_line (start 1.93 1.25) (end 8.23 1.25) (layer F.Fab) (width 0.1))
    (fp_line (start 8.23 1.25) (end 8.23 -1.25) (layer F.Fab) (width 0.1))
    (fp_line (start 8.23 -1.25) (end 1.93 -1.25) (layer F.Fab) (width 0.1))
    (fp_line (start 0 0) (end 1.93 0) (layer F.Fab) (width 0.1))
    (fp_line (start 10.16 0) (end 8.23 0) (layer F.Fab) (width 0.1))
    (fp_line (start 1.81 -1.37) (end 1.81 1.37) (layer F.SilkS) (width 0.12))
    (fp_line (start 1.81 1.37) (end 8.35 1.37) (layer F.SilkS) (width 0.12))
    (fp_line (start 8.35 1.37) (end 8.35 -1.37) (layer F.SilkS) (width 0.12))
    (fp_line (start 8.35 -1.37) (end 1.81 -1.37) (layer F.SilkS) (width 0.12))
    (fp_line (start 1.04 0) (end 1.81 0) (layer F.SilkS) (width 0.12))
    (fp_line (start 9.12 0) (end 8.35 0) (layer F.SilkS) (width 0.12))
    (fp_line (start -1.05 -1.5) (end -1.05 1.5) (layer F.CrtYd) (width 0.05))
    (fp_line (start -1.05 1.5) (end 11.21 1.5) (layer F.CrtYd) (width 0.05))
    (fp_line (start 11.21 1.5) (end 11.21 -1.5) (layer F.CrtYd) (width 0.05))
    (fp_line (start 11.21 -1.5) (end -1.05 -1.5) (layer F.CrtYd) (width 0.05))
    (fp_text user %R (at 5.08 0) (layer F.Fab)
      (effects (font (size 1 1) (thickness 0.15)))
    )
    (pad 1 thru_hole circle (at 0 0) (size 1.6 1.6) (drill 0.8) (layers *.Cu *.Mask)
      (net 34 "Net-(D2-Pad1)"))
    (pad 2 thru_hole oval (at 10.16 0) (size 1.6 1.6) (drill 0.8) (layers *.Cu *.Mask)
      (net 2 GND))
    (model ${KISYS3DMOD}/Resistor_THT.3dshapes/R_Axial_DIN0207_L6.3mm_D2.5mm_P10.16mm_Horizontal.wrl
      (at (xyz 0 0 0))
      (scale (xyz 1 1 1))
      (rotate (xyz 0 0 0))
    )
  )

  (module custom-lib:SSA-12 (layer F.Cu) (tedit 5CC1771A) (tstamp 5CC17669)
    (at 147.955 67.31 90)
    (path /5CC175EF)
    (fp_text reference SW1 (at 1.905 -3.81 180) (layer F.SilkS)
      (effects (font (size 1 1) (thickness 0.15)))
    )
    (fp_text value SSA-12 (at 8.255 0 180) (layer F.Fab)
      (effects (font (size 1 1) (thickness 0.15)))
    )
    (fp_line (start -1.778 -1.778) (end -1.778 1.778) (layer F.Fab) (width 0.15))
    (fp_line (start -1.778 1.778) (end 6.985 1.778) (layer F.Fab) (width 0.15))
    (fp_line (start 6.985 1.778) (end 6.985 -1.778) (layer F.Fab) (width 0.15))
    (fp_line (start 6.985 -1.778) (end -1.778 -1.778) (layer F.Fab) (width 0.15))
    (fp_line (start -1.778 -1.778) (end -1.778 1.778) (layer F.SilkS) (width 0.15))
    (fp_line (start -1.778 1.778) (end 6.985 1.778) (layer F.SilkS) (width 0.15))
    (fp_line (start 6.985 1.778) (end 6.985 -1.778) (layer F.SilkS) (width 0.15))
    (fp_line (start 6.985 -1.778) (end -1.778 -1.778) (layer F.SilkS) (width 0.15))
    (pad 1 thru_hole rect (at 0 0 90) (size 2 2) (drill 1.1) (layers *.Cu *.Mask)
      (net 29 VCC))
    (pad 2 thru_hole circle (at 2.54 0 90) (size 2 2) (drill 1.1) (layers *.Cu *.Mask)
      (net 22 "Net-(J4-Pad4)"))
    (pad 3 thru_hole circle (at 5.08 0 90) (size 2 2) (drill 1.1) (layers *.Cu *.Mask)
      (net 2 GND))
  )

  (module PCBs:mouse (layer F.Cu) (tedit 0) (tstamp 5CC17E26)
    (at 179.705 106.68)
    (fp_text reference G*** (at 0 0) (layer F.SilkS) hide
      (effects (font (size 1.524 1.524) (thickness 0.3)))
    )
    (fp_text value LOGO (at 0.75 0) (layer F.SilkS) hide
      (effects (font (size 1.524 1.524) (thickness 0.3)))
    )
  )

  (gr_text "Sound shield\nSetup 3A" (at 127.635 99.06) (layer F.SilkS)
    (effects (font (size 1.5 1.5) (thickness 0.3)))
  )
  (gr_text NOCAL (at 147.955 58.42) (layer F.SilkS)
    (effects (font (size 1.5 1.5) (thickness 0.3)))
  )
  (gr_text CAL (at 147.955 71.12) (layer F.SilkS)
    (effects (font (size 1.5 1.5) (thickness 0.3)))
  )
  (gr_line (start 112.395 107.95) (end 112.395 54.61) (layer Edge.Cuts) (width 0.2))
  (gr_line (start 158.115 107.95) (end 112.395 107.95) (layer Edge.Cuts) (width 0.2))
  (gr_line (start 158.115 54.61) (end 158.115 107.95) (layer Edge.Cuts) (width 0.2))
  (gr_line (start 112.395 54.61) (end 158.115 54.61) (layer Edge.Cuts) (width 0.2))

  (segment (start 120.015 82.55) (end 122.555 85.09) (width 0.25) (layer F.Cu) (net 1))
  (segment (start 114.935 82.55) (end 120.015 82.55) (width 0.25) (layer F.Cu) (net 1))
  (segment (start 120.015 80.01) (end 122.555 77.47) (width 0.25) (layer F.Cu) (net 3))
  (segment (start 114.935 80.01) (end 120.015 80.01) (width 0.25) (layer F.Cu) (net 3))
  (segment (start 135.255 63.179) (end 135.255 62.23) (width 0.25) (layer B.Cu) (net 8))
  (segment (start 131.124 67.31) (end 135.255 63.179) (width 0.25) (layer F.Cu) (net 8))
  (segment (start 135.255 63.179) (end 135.255 62.23) (width 0.25) (layer F.Cu) (net 8))
  (segment (start 114.935 67.31) (end 131.124 67.31) (width 0.25) (layer F.Cu) (net 8))
  (segment (start 147.955 64.77) (end 155.575 64.77) (width 0.25) (layer F.Cu) (net 22))
  (segment (start 147.955 74.93) (end 155.575 82.55) (width 0.25) (layer F.Cu) (net 29))
  (segment (start 147.955 67.31) (end 147.955 74.93) (width 0.25) (layer F.Cu) (net 29))
  (segment (start 125.095 85.09) (end 130.175 85.09) (width 0.25) (layer F.Cu) (net 33))
  (segment (start 125.095 77.47) (end 130.175 77.47) (width 0.25) (layer F.Cu) (net 34))

  (zone (net 2) (net_name GND) (layer B.Cu) (tstamp 5CC1757E) (hatch edge 0.508)
    (connect_pads (clearance 0.508))
    (min_thickness 0.254)
    (fill yes (arc_segments 16) (thermal_gap 0.508) (thermal_bridge_width 0.508))
    (polygon
      (pts
        (xy 112.395 54.61) (xy 112.395 107.95) (xy 158.115 107.95) (xy 158.115 54.61)
      )
    )
    (filled_polygon
      (pts
        (xy 128.358676 55.936371) (xy 128.0325 56.72383) (xy 128.0325 57.57617) (xy 128.358676 58.363629) (xy 128.961371 58.966324)
        (xy 129.74883 59.2925) (xy 130.60117 59.2925) (xy 131.388629 58.966324) (xy 131.991324 58.363629) (xy 132.3175 57.57617)
        (xy 132.3175 56.72383) (xy 131.991324 55.936371) (xy 131.399953 55.345) (xy 139.110047 55.345) (xy 138.518676 55.936371)
        (xy 138.1925 56.72383) (xy 138.1925 57.57617) (xy 138.518676 58.363629) (xy 139.121371 58.966324) (xy 139.90883 59.2925)
        (xy 140.76117 59.2925) (xy 141.548629 58.966324) (xy 142.151324 58.363629) (xy 142.4775 57.57617) (xy 142.4775 56.72383)
        (xy 142.151324 55.936371) (xy 141.559953 55.345) (xy 157.38 55.345) (xy 157.380001 107.215) (xy 113.13 107.215)
        (xy 113.13 97.79) (xy 113.420908 97.79) (xy 113.536161 98.369418) (xy 113.864375 98.860625) (xy 114.162761 99.06)
        (xy 113.864375 99.259375) (xy 113.536161 99.750582) (xy 113.420908 100.33) (xy 113.536161 100.909418) (xy 113.864375 101.400625)
        (xy 114.162761 101.6) (xy 113.864375 101.799375) (xy 113.536161 102.290582) (xy 113.420908 102.87) (xy 113.536161 103.449418)
        (xy 113.864375 103.940625) (xy 114.355582 104.268839) (xy 114.788744 104.355) (xy 115.081256 104.355) (xy 115.514418 104.268839)
        (xy 116.005625 103.940625) (xy 116.333839 103.449418) (xy 116.449092 102.87) (xy 116.333839 102.290582) (xy 116.005625 101.799375)
        (xy 115.707239 101.6) (xy 116.005625 101.400625) (xy 116.333839 100.909418) (xy 116.449092 100.33) (xy 116.333839 99.750582)
        (xy 116.005625 99.259375) (xy 115.707239 99.06) (xy 116.005625 98.860625) (xy 116.333839 98.369418) (xy 116.449092 97.79)
        (xy 116.333839 97.210582) (xy 116.005625 96.719375) (xy 115.686522 96.506157) (xy 115.816358 96.445183) (xy 116.206645 96.016924)
        (xy 116.376476 95.60689) (xy 116.255155 95.377) (xy 115.062 95.377) (xy 115.062 95.397) (xy 114.808 95.397)
        (xy 114.808 95.377) (xy 113.614845 95.377) (xy 113.493524 95.60689) (xy 113.663355 96.016924) (xy 114.053642 96.445183)
        (xy 114.183478 96.506157) (xy 113.864375 96.719375) (xy 113.536161 97.210582) (xy 113.420908 97.79) (xy 113.13 97.79)
        (xy 113.13 82.55) (xy 113.420908 82.55) (xy 113.536161 83.129418) (xy 113.864375 83.620625) (xy 114.162761 83.82)
        (xy 113.864375 84.019375) (xy 113.536161 84.510582) (xy 113.420908 85.09) (xy 113.536161 85.669418) (xy 113.864375 86.160625)
        (xy 114.162761 86.36) (xy 113.864375 86.559375) (xy 113.536161 87.050582) (xy 113.420908 87.63) (xy 113.536161 88.209418)
        (xy 113.864375 88.700625) (xy 114.162761 88.9) (xy 113.864375 89.099375) (xy 113.536161 89.590582) (xy 113.420908 90.17)
        (xy 113.536161 90.749418) (xy 113.864375 91.240625) (xy 114.162761 91.44) (xy 113.864375 91.639375) (xy 113.536161 92.130582)
        (xy 113.420908 92.71) (xy 113.536161 93.289418) (xy 113.864375 93.780625) (xy 114.183478 93.993843) (xy 114.053642 94.054817)
        (xy 113.663355 94.483076) (xy 113.493524 94.89311) (xy 113.614845 95.123) (xy 114.808 95.123) (xy 114.808 95.103)
        (xy 115.062 95.103) (xy 115.062 95.123) (xy 116.255155 95.123) (xy 116.376476 94.89311) (xy 116.206645 94.483076)
        (xy 115.816358 94.054817) (xy 115.686522 93.993843) (xy 116.005625 93.780625) (xy 116.333839 93.289418) (xy 116.449092 92.71)
        (xy 116.333839 92.130582) (xy 116.005625 91.639375) (xy 115.707239 91.44) (xy 116.005625 91.240625) (xy 116.333839 90.749418)
        (xy 116.449092 90.17) (xy 116.333839 89.590582) (xy 116.005625 89.099375) (xy 115.707239 88.9) (xy 116.005625 88.700625)
        (xy 116.333839 88.209418) (xy 116.449092 87.63) (xy 116.333839 87.050582) (xy 116.005625 86.559375) (xy 115.707239 86.36)
        (xy 116.005625 86.160625) (xy 116.333839 85.669418) (xy 116.449092 85.09) (xy 116.388359 84.78467) (xy 121.02 84.78467)
        (xy 121.02 85.39533) (xy 121.25369 85.959507) (xy 121.685493 86.39131) (xy 122.24967 86.625) (xy 122.86033 86.625)
        (xy 123.424507 86.39131) (xy 123.593725 86.222092) (xy 123.596843 86.237765) (xy 123.737191 86.447809) (xy 123.947235 86.588157)
        (xy 124.195 86.63744) (xy 125.995 86.63744) (xy 126.242765 86.588157) (xy 126.452809 86.447809) (xy 126.593157 86.237765)
        (xy 126.64244 85.99) (xy 126.64244 84.804561) (xy 128.74 84.804561) (xy 128.74 85.375439) (xy 128.958466 85.902862)
        (xy 129.362138 86.306534) (xy 129.889561 86.525) (xy 130.460439 86.525) (xy 130.987862 86.306534) (xy 131.391534 85.902862)
        (xy 131.583655 85.439039) (xy 138.943096 85.439039) (xy 139.103959 85.827423) (xy 139.479866 86.242389) (xy 139.985959 86.481914)
        (xy 140.208 86.360629) (xy 140.208 85.217) (xy 140.462 85.217) (xy 140.462 86.360629) (xy 140.684041 86.481914)
        (xy 141.190134 86.242389) (xy 141.566041 85.827423) (xy 141.726904 85.439039) (xy 141.604915 85.217) (xy 140.462 85.217)
        (xy 140.208 85.217) (xy 139.065085 85.217) (xy 138.943096 85.439039) (xy 131.583655 85.439039) (xy 131.61 85.375439)
        (xy 131.61 84.804561) (xy 131.583656 84.740961) (xy 138.943096 84.740961) (xy 139.065085 84.963) (xy 140.208 84.963)
        (xy 140.208 83.819371) (xy 140.462 83.819371) (xy 140.462 84.963) (xy 141.604915 84.963) (xy 141.726904 84.740961)
        (xy 141.566041 84.352577) (xy 141.190134 83.937611) (xy 140.684041 83.698086) (xy 140.462 83.819371) (xy 140.208 83.819371)
        (xy 139.985959 83.698086) (xy 139.479866 83.937611) (xy 139.103959 84.352577) (xy 138.943096 84.740961) (xy 131.583656 84.740961)
        (xy 131.391534 84.277138) (xy 130.987862 83.873466) (xy 130.460439 83.655) (xy 129.889561 83.655) (xy 129.362138 83.873466)
        (xy 128.958466 84.277138) (xy 128.74 84.804561) (xy 126.64244 84.804561) (xy 126.64244 84.19) (xy 126.593157 83.942235)
        (xy 126.452809 83.732191) (xy 126.242765 83.591843) (xy 125.995 83.54256) (xy 124.195 83.54256) (xy 123.947235 83.591843)
        (xy 123.737191 83.732191) (xy 123.596843 83.942235) (xy 123.593725 83.957908) (xy 123.424507 83.78869) (xy 122.86033 83.555)
        (xy 122.24967 83.555) (xy 121.685493 83.78869) (xy 121.25369 84.220493) (xy 121.02 84.78467) (xy 116.388359 84.78467)
        (xy 116.333839 84.510582) (xy 116.005625 84.019375) (xy 115.707239 83.82) (xy 116.005625 83.620625) (xy 116.333839 83.129418)
        (xy 116.449092 82.55) (xy 116.333839 81.970582) (xy 116.005625 81.479375) (xy 115.987381 81.467184) (xy 116.032765 81.458157)
        (xy 116.242809 81.317809) (xy 116.383157 81.107765) (xy 116.43244 80.86) (xy 116.43244 79.16) (xy 116.383157 78.912235)
        (xy 116.242809 78.702191) (xy 116.032765 78.561843) (xy 115.785 78.51256) (xy 114.085 78.51256) (xy 113.837235 78.561843)
        (xy 113.627191 78.702191) (xy 113.486843 78.912235) (xy 113.43756 79.16) (xy 113.43756 80.86) (xy 113.486843 81.107765)
        (xy 113.627191 81.317809) (xy 113.837235 81.458157) (xy 113.882619 81.467184) (xy 113.864375 81.479375) (xy 113.536161 81.970582)
        (xy 113.420908 82.55) (xy 113.13 82.55) (xy 113.13 77.16467) (xy 121.02 77.16467) (xy 121.02 77.77533)
        (xy 121.25369 78.339507) (xy 121.685493 78.77131) (xy 122.24967 79.005) (xy 122.86033 79.005) (xy 123.424507 78.77131)
        (xy 123.593725 78.602092) (xy 123.596843 78.617765) (xy 123.737191 78.827809) (xy 123.947235 78.968157) (xy 124.195 79.01744)
        (xy 125.995 79.01744) (xy 126.242765 78.968157) (xy 126.452809 78.827809) (xy 126.593157 78.617765) (xy 126.64244 78.37)
        (xy 126.64244 77.184561) (xy 128.74 77.184561) (xy 128.74 77.755439) (xy 128.958466 78.282862) (xy 129.362138 78.686534)
        (xy 129.889561 78.905) (xy 130.460439 78.905) (xy 130.987862 78.686534) (xy 131.391534 78.282862) (xy 131.583655 77.819039)
        (xy 138.943096 77.819039) (xy 139.103959 78.207423) (xy 139.479866 78.622389) (xy 139.985959 78.861914) (xy 140.208 78.740629)
        (xy 140.208 77.597) (xy 140.462 77.597) (xy 140.462 78.740629) (xy 140.684041 78.861914) (xy 141.190134 78.622389)
        (xy 141.566041 78.207423) (xy 141.726904 77.819039) (xy 141.604915 77.597) (xy 140.462 77.597) (xy 140.208 77.597)
        (xy 139.065085 77.597) (xy 138.943096 77.819039) (xy 131.583655 77.819039) (xy 131.61 77.755439) (xy 131.61 77.47)
        (xy 154.060908 77.47) (xy 154.176161 78.049418) (xy 154.504375 78.540625) (xy 154.802761 78.74) (xy 154.504375 78.939375)
        (xy 154.176161 79.430582) (xy 154.060908 80.01) (xy 154.176161 80.589418) (xy 154.504375 81.080625) (xy 154.802761 81.28)
        (xy 154.504375 81.479375) (xy 154.176161 81.970582) (xy 154.060908 82.55) (xy 154.176161 83.129418) (xy 154.504375 83.620625)
        (xy 154.802761 83.82) (xy 154.504375 84.019375) (xy 154.176161 84.510582) (xy 154.060908 85.09) (xy 154.176161 85.669418)
        (xy 154.504375 86.160625) (xy 154.802761 86.36) (xy 154.504375 86.559375) (xy 154.176161 87.050582) (xy 154.060908 87.63)
        (xy 154.176161 88.209418) (xy 154.504375 88.700625) (xy 154.802761 88.9) (xy 154.504375 89.099375) (xy 154.176161 89.590582)
        (xy 154.060908 90.17) (xy 154.176161 90.749418) (xy 154.504375 91.240625) (xy 154.802761 91.44) (xy 154.504375 91.639375)
        (xy 154.176161 92.130582) (xy 154.060908 92.71) (xy 154.176161 93.289418) (xy 154.504375 93.780625) (xy 154.995582 94.108839)
        (xy 155.428744 94.195) (xy 155.721256 94.195) (xy 156.154418 94.108839) (xy 156.645625 93.780625) (xy 156.973839 93.289418)
        (xy 157.089092 92.71) (xy 156.973839 92.130582) (xy 156.645625 91.639375) (xy 156.347239 91.44) (xy 156.645625 91.240625)
        (xy 156.973839 90.749418) (xy 157.089092 90.17) (xy 156.973839 89.590582) (xy 156.645625 89.099375) (xy 156.347239 88.9)
        (xy 156.645625 88.700625) (xy 156.973839 88.209418) (xy 157.089092 87.63) (xy 156.973839 87.050582) (xy 156.645625 86.559375)
        (xy 156.347239 86.36) (xy 156.645625 86.160625) (xy 156.973839 85.669418) (xy 157.089092 85.09) (xy 156.973839 84.510582)
        (xy 156.645625 84.019375) (xy 156.347239 83.82) (xy 156.645625 83.620625) (xy 156.973839 83.129418) (xy 157.089092 82.55)
        (xy 156.973839 81.970582) (xy 156.645625 81.479375) (xy 156.347239 81.28) (xy 156.645625 81.080625) (xy 156.973839 80.589418)
        (xy 157.089092 80.01) (xy 156.973839 79.430582) (xy 156.645625 78.939375) (xy 156.347239 78.74) (xy 156.645625 78.540625)
        (xy 156.973839 78.049418) (xy 157.089092 77.47) (xy 156.973839 76.890582) (xy 156.645625 76.399375) (xy 156.627381 76.387184)
        (xy 156.672765 76.378157) (xy 156.882809 76.237809) (xy 157.023157 76.027765) (xy 157.07244 75.78) (xy 157.07244 74.08)
        (xy 157.023157 73.832235) (xy 156.882809 73.622191) (xy 156.672765 73.481843) (xy 156.425 73.43256) (xy 154.725 73.43256)
        (xy 154.477235 73.481843) (xy 154.267191 73.622191) (xy 154.126843 73.832235) (xy 154.07756 74.08) (xy 154.07756 75.78)
        (xy 154.126843 76.027765) (xy 154.267191 76.237809) (xy 154.477235 76.378157) (xy 154.522619 76.387184) (xy 154.504375 76.399375)
        (xy 154.176161 76.890582) (xy 154.060908 77.47) (xy 131.61 77.47) (xy 131.61 77.184561) (xy 131.583656 77.120961)
        (xy 138.943096 77.120961) (xy 139.065085 77.343) (xy 140.208 77.343) (xy 140.208 76.199371) (xy 140.462 76.199371)
        (xy 140.462 77.343) (xy 141.604915 77.343) (xy 141.726904 77.120961) (xy 141.566041 76.732577) (xy 141.190134 76.317611)
        (xy 140.684041 76.078086) (xy 140.462 76.199371) (xy 140.208 76.199371) (xy 139.985959 76.078086) (xy 139.479866 76.317611)
        (xy 139.103959 76.732577) (xy 138.943096 77.120961) (xy 131.583656 77.120961) (xy 131.391534 76.657138) (xy 130.987862 76.253466)
        (xy 130.460439 76.035) (xy 129.889561 76.035) (xy 129.362138 76.253466) (xy 128.958466 76.657138) (xy 128.74 77.184561)
        (xy 126.64244 77.184561) (xy 126.64244 76.57) (xy 126.593157 76.322235) (xy 126.452809 76.112191) (xy 126.242765 75.971843)
        (xy 125.995 75.92256) (xy 124.195 75.92256) (xy 123.947235 75.971843) (xy 123.737191 76.112191) (xy 123.596843 76.322235)
        (xy 123.593725 76.337908) (xy 123.424507 76.16869) (xy 122.86033 75.935) (xy 122.24967 75.935) (xy 121.685493 76.16869)
        (xy 121.25369 76.600493) (xy 121.02 77.16467) (xy 113.13 77.16467) (xy 113.13 59.69) (xy 113.420908 59.69)
        (xy 113.536161 60.269418) (xy 113.864375 60.760625) (xy 114.162761 60.96) (xy 113.864375 61.159375) (xy 113.536161 61.650582)
        (xy 113.420908 62.23) (xy 113.536161 62.809418) (xy 113.864375 63.300625) (xy 114.162761 63.5) (xy 113.864375 63.699375)
        (xy 113.536161 64.190582) (xy 113.420908 64.77) (xy 113.536161 65.349418) (xy 113.864375 65.840625) (xy 114.162761 66.04)
        (xy 113.864375 66.239375) (xy 113.536161 66.730582) (xy 113.420908 67.31) (xy 113.536161 67.889418) (xy 113.864375 68.380625)
        (xy 114.162761 68.58) (xy 113.864375 68.779375) (xy 113.536161 69.270582) (xy 113.420908 69.85) (xy 113.536161 70.429418)
        (xy 113.864375 70.920625) (xy 114.162761 71.12) (xy 113.864375 71.319375) (xy 113.536161 71.810582) (xy 113.420908 72.39)
        (xy 113.536161 72.969418) (xy 113.864375 73.460625) (xy 114.162761 73.66) (xy 113.864375 73.859375) (xy 113.536161 74.350582)
        (xy 113.420908 74.93) (xy 113.536161 75.509418) (xy 113.864375 76.000625) (xy 114.355582 76.328839) (xy 114.788744 76.415)
        (xy 115.081256 76.415) (xy 115.514418 76.328839) (xy 116.005625 76.000625) (xy 116.333839 75.509418) (xy 116.449092 74.93)
        (xy 116.333839 74.350582) (xy 116.005625 73.859375) (xy 115.707239 73.66) (xy 116.005625 73.460625) (xy 116.333839 72.969418)
        (xy 116.449092 72.39) (xy 116.333839 71.810582) (xy 116.005625 71.319375) (xy 115.707239 71.12) (xy 116.005625 70.920625)
        (xy 116.333839 70.429418) (xy 116.449092 69.85) (xy 116.333839 69.270582) (xy 116.005625 68.779375) (xy 115.707239 68.58)
        (xy 116.005625 68.380625) (xy 116.333839 67.889418) (xy 116.449092 67.31) (xy 116.333839 66.730582) (xy 116.052816 66.31)
        (xy 146.30756 66.31) (xy 146.30756 68.31) (xy 146.356843 68.557765) (xy 146.497191 68.767809) (xy 146.707235 68.908157)
        (xy 146.955 68.95744) (xy 148.955 68.95744) (xy 149.202765 68.908157) (xy 149.412809 68.767809) (xy 149.553157 68.557765)
        (xy 149.60244 68.31) (xy 149.60244 66.31) (xy 149.553157 66.062235) (xy 149.412809 65.852191) (xy 149.276277 65.760962)
        (xy 149.341086 65.696153) (xy 149.59 65.095222) (xy 149.59 64.444778) (xy 149.341086 63.843847) (xy 148.914928 63.417689)
        (xy 148.927927 63.382532) (xy 147.955 62.409605) (xy 146.982073 63.382532) (xy 146.995072 63.417689) (xy 146.568914 63.843847)
        (xy 146.32 64.444778) (xy 146.32 65.095222) (xy 146.568914 65.696153) (xy 146.633723 65.760962) (xy 146.497191 65.852191)
        (xy 146.356843 66.062235) (xy 146.30756 66.31) (xy 116.052816 66.31) (xy 116.005625 66.239375) (xy 115.707239 66.04)
        (xy 116.005625 65.840625) (xy 116.333839 65.349418) (xy 116.449092 64.77) (xy 116.333839 64.190582) (xy 116.005625 63.699375)
        (xy 115.707239 63.5) (xy 116.005625 63.300625) (xy 116.096547 63.16455) (xy 131.960055 63.16455) (xy 132.021771 63.400214)
        (xy 132.522361 63.576424) (xy 133.052279 63.547654) (xy 133.408229 63.400214) (xy 133.469945 63.16455) (xy 132.715 62.409605)
        (xy 131.960055 63.16455) (xy 116.096547 63.16455) (xy 116.333839 62.809418) (xy 116.449092 62.23) (xy 116.410774 62.037361)
        (xy 131.368576 62.037361) (xy 131.397346 62.567279) (xy 131.544786 62.923229) (xy 131.78045 62.984945) (xy 132.535395 62.23)
        (xy 132.894605 62.23) (xy 133.64955 62.984945) (xy 133.885214 62.923229) (xy 133.90856 62.856906) (xy 133.90856 62.929)
        (xy 133.957843 63.176765) (xy 134.098191 63.386809) (xy 134.308235 63.527157) (xy 134.556 63.57644) (xy 134.606518 63.57644)
        (xy 134.707071 63.726929) (xy 134.958463 63.894904) (xy 135.255 63.953889) (xy 135.551536 63.894904) (xy 135.802929 63.726929)
        (xy 135.903483 63.57644) (xy 135.954 63.57644) (xy 136.201765 63.527157) (xy 136.411809 63.386809) (xy 136.552157 63.176765)
        (xy 136.60144 62.929) (xy 136.60144 61.965461) (xy 146.309092 61.965461) (xy 146.333144 62.61546) (xy 146.535613 63.104264)
        (xy 146.802468 63.202927) (xy 147.775395 62.23) (xy 148.134605 62.23) (xy 149.107532 63.202927) (xy 149.374387 63.104264)
        (xy 149.600908 62.494539) (xy 149.576856 61.84454) (xy 149.374387 61.355736) (xy 149.107532 61.257073) (xy 148.134605 62.23)
        (xy 147.775395 62.23) (xy 146.802468 61.257073) (xy 146.535613 61.355736) (xy 146.309092 61.965461) (xy 136.60144 61.965461)
        (xy 136.60144 61.531) (xy 136.552157 61.283235) (xy 136.414667 61.077468) (xy 146.982073 61.077468) (xy 147.955 62.050395)
        (xy 148.927927 61.077468) (xy 148.829264 60.810613) (xy 148.219539 60.584092) (xy 147.56954 60.608144) (xy 147.080736 60.810613)
        (xy 146.982073 61.077468) (xy 136.414667 61.077468) (xy 136.411809 61.073191) (xy 136.201765 60.932843) (xy 135.954 60.88356)
        (xy 134.556 60.88356) (xy 134.308235 60.932843) (xy 134.098191 61.073191) (xy 133.957843 61.283235) (xy 133.90856 61.531)
        (xy 133.90856 61.593133) (xy 133.885214 61.536771) (xy 133.64955 61.475055) (xy 132.894605 62.23) (xy 132.535395 62.23)
        (xy 131.78045 61.475055) (xy 131.544786 61.536771) (xy 131.368576 62.037361) (xy 116.410774 62.037361) (xy 116.333839 61.650582)
        (xy 116.096548 61.29545) (xy 131.960055 61.29545) (xy 132.715 62.050395) (xy 133.469945 61.29545) (xy 133.408229 61.059786)
        (xy 132.907639 60.883576) (xy 132.377721 60.912346) (xy 132.021771 61.059786) (xy 131.960055 61.29545) (xy 116.096548 61.29545)
        (xy 116.005625 61.159375) (xy 115.707239 60.96) (xy 116.005625 60.760625) (xy 116.333839 60.269418) (xy 116.449092 59.69)
        (xy 154.060908 59.69) (xy 154.176161 60.269418) (xy 154.504375 60.760625) (xy 154.802761 60.96) (xy 154.504375 61.159375)
        (xy 154.176161 61.650582) (xy 154.060908 62.23) (xy 154.176161 62.809418) (xy 154.504375 63.300625) (xy 154.802761 63.5)
        (xy 154.504375 63.699375) (xy 154.176161 64.190582) (xy 154.060908 64.77) (xy 154.176161 65.349418) (xy 154.504375 65.840625)
        (xy 154.802761 66.04) (xy 154.504375 66.239375) (xy 154.176161 66.730582) (xy 154.060908 67.31) (xy 154.176161 67.889418)
        (xy 154.504375 68.380625) (xy 154.802761 68.58) (xy 154.504375 68.779375) (xy 154.176161 69.270582) (xy 154.060908 69.85)
        (xy 154.176161 70.429418) (xy 154.504375 70.920625) (xy 154.995582 71.248839) (xy 155.428744 71.335) (xy 155.721256 71.335)
        (xy 156.154418 71.248839) (xy 156.645625 70.920625) (xy 156.973839 70.429418) (xy 157.089092 69.85) (xy 156.973839 69.270582)
        (xy 156.645625 68.779375) (xy 156.347239 68.58) (xy 156.645625 68.380625) (xy 156.973839 67.889418) (xy 157.089092 67.31)
        (xy 156.973839 66.730582) (xy 156.645625 66.239375) (xy 156.347239 66.04) (xy 156.645625 65.840625) (xy 156.973839 65.349418)
        (xy 157.089092 64.77) (xy 156.973839 64.190582) (xy 156.645625 63.699375) (xy 156.347239 63.5) (xy 156.645625 63.300625)
        (xy 156.973839 62.809418) (xy 157.089092 62.23) (xy 156.973839 61.650582) (xy 156.645625 61.159375) (xy 156.347239 60.96)
        (xy 156.645625 60.760625) (xy 156.973839 60.269418) (xy 157.089092 59.69) (xy 156.973839 59.110582) (xy 156.645625 58.619375)
        (xy 156.627381 58.607184) (xy 156.672765 58.598157) (xy 156.882809 58.457809) (xy 157.023157 58.247765) (xy 157.07244 58)
        (xy 157.07244 56.3) (xy 157.023157 56.052235) (xy 156.882809 55.842191) (xy 156.672765 55.701843) (xy 156.425 55.65256)
        (xy 154.725 55.65256) (xy 154.477235 55.701843) (xy 154.267191 55.842191) (xy 154.126843 56.052235) (xy 154.07756 56.3)
        (xy 154.07756 58) (xy 154.126843 58.247765) (xy 154.267191 58.457809) (xy 154.477235 58.598157) (xy 154.522619 58.607184)
        (xy 154.504375 58.619375) (xy 154.176161 59.110582) (xy 154.060908 59.69) (xy 116.449092 59.69) (xy 116.333839 59.110582)
        (xy 116.005625 58.619375) (xy 115.987381 58.607184) (xy 116.032765 58.598157) (xy 116.242809 58.457809) (xy 116.383157 58.247765)
        (xy 116.43244 58) (xy 116.43244 56.3) (xy 116.383157 56.052235) (xy 116.242809 55.842191) (xy 116.032765 55.701843)
        (xy 115.785 55.65256) (xy 114.085 55.65256) (xy 113.837235 55.701843) (xy 113.627191 55.842191) (xy 113.486843 56.052235)
        (xy 113.43756 56.3) (xy 113.43756 58) (xy 113.486843 58.247765) (xy 113.627191 58.457809) (xy 113.837235 58.598157)
        (xy 113.882619 58.607184) (xy 113.864375 58.619375) (xy 113.536161 59.110582) (xy 113.420908 59.69) (xy 113.13 59.69)
        (xy 113.13 55.345) (xy 128.950047 55.345)
      )
    )
  )
)
