(export (version D)
  (design
    (source "/home/albert/Desktop/Lab Work/PCBs/3A-sound-shield/3A-sound-shield.sch")
    (date "jue 25 abr 2019 10:01:55 CEST")
    (tool "Eeschema 5.0.2-bee76a0~70~ubuntu16.04.1")
    (sheet (number 1) (name /) (tstamps /)
      (title_block
        (title)
        (company)
        (rev)
        (date)
        (source 3A-sound-shield.sch)
        (comment (number 1) (value ""))
        (comment (number 2) (value ""))
        (comment (number 3) (value ""))
        (comment (number 4) (value "")))))
  (components
    (comp (ref J1)
      (value Conn_01x08_Male)
      (footprint Connector_PinHeader_2.54mm:PinHeader_1x08_P2.54mm_Vertical)
      (datasheet ~)
      (libsource (lib Connector) (part Conn_01x08_Male) (description "Generic connector, single row, 01x08, script generated (kicad-library-utils/schlib/autogen/connector/)"))
      (sheetpath (names /) (tstamps /))
      (tstamp 5CC166AE))
    (comp (ref J2)
      (value Conn_01x10_Male)
      (footprint Connector_PinHeader_2.54mm:PinHeader_1x10_P2.54mm_Vertical)
      (datasheet ~)
      (libsource (lib Connector) (part Conn_01x10_Male) (description "Generic connector, single row, 01x10, script generated (kicad-library-utils/schlib/autogen/connector/)"))
      (sheetpath (names /) (tstamps /))
      (tstamp 5CC1676E))
    (comp (ref J5)
      (value Conn_01x08_Male)
      (footprint Connector_PinHeader_2.54mm:PinHeader_1x08_P2.54mm_Vertical)
      (datasheet ~)
      (libsource (lib Connector) (part Conn_01x08_Male) (description "Generic connector, single row, 01x08, script generated (kicad-library-utils/schlib/autogen/connector/)"))
      (sheetpath (names /) (tstamps /))
      (tstamp 5CC167CC))
    (comp (ref J3)
      (value TE_1-1634612-0)
      (footprint 1-1634612-0:TE_1-1634612-0)
      (datasheet " ~")
      (libsource (lib Connector) (part Conn_Coaxial) (description "coaxial connector (BNC, SMA, SMB, SMC, Cinch/RCA, ...)"))
      (sheetpath (names /) (tstamps /))
      (tstamp 5CC16B8A))
    (comp (ref R2)
      (value 330R)
      (footprint Resistor_THT:R_Axial_DIN0207_L6.3mm_D2.5mm_P10.16mm_Horizontal)
      (datasheet ~)
      (libsource (lib Device) (part R) (description Resistor))
      (sheetpath (names /) (tstamps /))
      (tstamp 5CC16DBA))
    (comp (ref R1)
      (value 330R)
      (footprint Resistor_THT:R_Axial_DIN0207_L6.3mm_D2.5mm_P10.16mm_Horizontal)
      (datasheet ~)
      (libsource (lib Device) (part R) (description Resistor))
      (sheetpath (names /) (tstamps /))
      (tstamp 5CC16E40))
    (comp (ref D2)
      (value Red)
      (footprint LED_THT:LED_D5.0mm)
      (datasheet ~)
      (libsource (lib Device) (part LED) (description "Light emitting diode"))
      (sheetpath (names /) (tstamps /))
      (tstamp 5CC16ED6))
    (comp (ref D1)
      (value White)
      (footprint LED_THT:LED_D5.0mm)
      (datasheet ~)
      (libsource (lib Device) (part LED) (description "Light emitting diode"))
      (sheetpath (names /) (tstamps /))
      (tstamp 5CC16F91))
    (comp (ref J4)
      (value Conn_01x06_Male)
      (footprint Connector_PinHeader_2.54mm:PinHeader_1x06_P2.54mm_Vertical)
      (datasheet ~)
      (libsource (lib Connector) (part Conn_01x06_Male) (description "Generic connector, single row, 01x06, script generated (kicad-library-utils/schlib/autogen/connector/)"))
      (sheetpath (names /) (tstamps /))
      (tstamp 5CC17598))
    (comp (ref SW1)
      (value SSA-12)
      (footprint custom-lib:SSA-12)
      (libsource (lib Switch) (part SW_SPDT) (description "Switch, single pole double throw"))
      (sheetpath (names /) (tstamps /))
      (tstamp 5CC175EF)))
  (libparts
    (libpart (lib Connector) (part Conn_01x06_Male)
      (description "Generic connector, single row, 01x06, script generated (kicad-library-utils/schlib/autogen/connector/)")
      (docs ~)
      (footprints
        (fp Connector*:*_1x??_*))
      (fields
        (field (name Reference) J)
        (field (name Value) Conn_01x06_Male))
      (pins
        (pin (num 1) (name Pin_1) (type passive))
        (pin (num 2) (name Pin_2) (type passive))
        (pin (num 3) (name Pin_3) (type passive))
        (pin (num 4) (name Pin_4) (type passive))
        (pin (num 5) (name Pin_5) (type passive))
        (pin (num 6) (name Pin_6) (type passive))))
    (libpart (lib Connector) (part Conn_01x08_Male)
      (description "Generic connector, single row, 01x08, script generated (kicad-library-utils/schlib/autogen/connector/)")
      (docs ~)
      (footprints
        (fp Connector*:*_1x??_*))
      (fields
        (field (name Reference) J)
        (field (name Value) Conn_01x08_Male))
      (pins
        (pin (num 1) (name Pin_1) (type passive))
        (pin (num 2) (name Pin_2) (type passive))
        (pin (num 3) (name Pin_3) (type passive))
        (pin (num 4) (name Pin_4) (type passive))
        (pin (num 5) (name Pin_5) (type passive))
        (pin (num 6) (name Pin_6) (type passive))
        (pin (num 7) (name Pin_7) (type passive))
        (pin (num 8) (name Pin_8) (type passive))))
    (libpart (lib Connector) (part Conn_01x10_Male)
      (description "Generic connector, single row, 01x10, script generated (kicad-library-utils/schlib/autogen/connector/)")
      (docs ~)
      (footprints
        (fp Connector*:*_1x??_*))
      (fields
        (field (name Reference) J)
        (field (name Value) Conn_01x10_Male))
      (pins
        (pin (num 1) (name Pin_1) (type passive))
        (pin (num 2) (name Pin_2) (type passive))
        (pin (num 3) (name Pin_3) (type passive))
        (pin (num 4) (name Pin_4) (type passive))
        (pin (num 5) (name Pin_5) (type passive))
        (pin (num 6) (name Pin_6) (type passive))
        (pin (num 7) (name Pin_7) (type passive))
        (pin (num 8) (name Pin_8) (type passive))
        (pin (num 9) (name Pin_9) (type passive))
        (pin (num 10) (name Pin_10) (type passive))))
    (libpart (lib Connector) (part Conn_Coaxial)
      (description "coaxial connector (BNC, SMA, SMB, SMC, Cinch/RCA, ...)")
      (docs " ~")
      (footprints
        (fp *BNC*)
        (fp *SMA*)
        (fp *SMB*)
        (fp *SMC*)
        (fp *Cinch*))
      (fields
        (field (name Reference) J)
        (field (name Value) Conn_Coaxial))
      (pins
        (pin (num 1) (name In) (type passive))
        (pin (num 2) (name Ext) (type passive))))
    (libpart (lib Device) (part LED)
      (description "Light emitting diode")
      (docs ~)
      (footprints
        (fp LED*)
        (fp LED_SMD:*)
        (fp LED_THT:*))
      (fields
        (field (name Reference) D)
        (field (name Value) LED))
      (pins
        (pin (num 1) (name K) (type passive))
        (pin (num 2) (name A) (type passive))))
    (libpart (lib Device) (part R)
      (description Resistor)
      (docs ~)
      (footprints
        (fp R_*))
      (fields
        (field (name Reference) R)
        (field (name Value) R))
      (pins
        (pin (num 1) (name ~) (type passive))
        (pin (num 2) (name ~) (type passive))))
    (libpart (lib Switch) (part SW_SPDT)
      (description "Switch, single pole double throw")
      (fields
        (field (name Reference) SW)
        (field (name Value) SW_SPDT))
      (pins
        (pin (num 1) (name A) (type passive))
        (pin (num 2) (name B) (type passive))
        (pin (num 3) (name C) (type passive)))))
  (libraries
    (library (logical Connector)
      (uri /usr/share/kicad/library/Connector.lib))
    (library (logical Device)
      (uri /usr/share/kicad/library/Device.lib))
    (library (logical Switch)
      (uri /usr/share/kicad/library/Switch.lib)))
  (nets
    (net (code 1) (name GND)
      (node (ref J2) (pin 7))
      (node (ref R1) (pin 2))
      (node (ref R2) (pin 2))
      (node (ref J3) (pin 2))
      (node (ref SW1) (pin 3)))
    (net (code 2) (name VCC)
      (node (ref SW1) (pin 1))
      (node (ref J5) (pin 4)))
    (net (code 3) (name "Net-(J4-Pad4)")
      (node (ref SW1) (pin 2))
      (node (ref J4) (pin 4)))
    (net (code 4) (name "Net-(J4-Pad6)")
      (node (ref J4) (pin 6)))
    (net (code 5) (name "Net-(J4-Pad5)")
      (node (ref J4) (pin 5)))
    (net (code 6) (name "Net-(J4-Pad3)")
      (node (ref J4) (pin 3)))
    (net (code 7) (name "Net-(J4-Pad2)")
      (node (ref J4) (pin 2)))
    (net (code 8) (name "Net-(J4-Pad1)")
      (node (ref J4) (pin 1)))
    (net (code 9) (name "Net-(J2-Pad9)")
      (node (ref J2) (pin 9)))
    (net (code 10) (name "Net-(J5-Pad8)")
      (node (ref J5) (pin 8)))
    (net (code 11) (name "Net-(J5-Pad7)")
      (node (ref J5) (pin 7)))
    (net (code 12) (name "Net-(J5-Pad6)")
      (node (ref J5) (pin 6)))
    (net (code 13) (name "Net-(J5-Pad5)")
      (node (ref J5) (pin 5)))
    (net (code 14) (name "Net-(J5-Pad3)")
      (node (ref J5) (pin 3)))
    (net (code 15) (name "Net-(J5-Pad2)")
      (node (ref J5) (pin 2)))
    (net (code 16) (name "Net-(J5-Pad1)")
      (node (ref J5) (pin 1)))
    (net (code 17) (name "Net-(J2-Pad10)")
      (node (ref J2) (pin 10)))
    (net (code 18) (name "Net-(D1-Pad2)")
      (node (ref J2) (pin 2))
      (node (ref D1) (pin 2)))
    (net (code 19) (name "Net-(J2-Pad8)")
      (node (ref J2) (pin 8)))
    (net (code 20) (name "Net-(J2-Pad6)")
      (node (ref J2) (pin 6)))
    (net (code 21) (name "Net-(J2-Pad5)")
      (node (ref J2) (pin 5)))
    (net (code 22) (name "Net-(J2-Pad4)")
      (node (ref J2) (pin 4)))
    (net (code 23) (name "Net-(J2-Pad3)")
      (node (ref J2) (pin 3)))
    (net (code 24) (name "Net-(J1-Pad8)")
      (node (ref J1) (pin 8)))
    (net (code 25) (name "Net-(J1-Pad7)")
      (node (ref J1) (pin 7)))
    (net (code 26) (name "Net-(J1-Pad6)")
      (node (ref J1) (pin 6)))
    (net (code 27) (name "Net-(J1-Pad4)")
      (node (ref J1) (pin 4)))
    (net (code 28) (name "Net-(J1-Pad3)")
      (node (ref J1) (pin 3)))
    (net (code 29) (name "Net-(J1-Pad2)")
      (node (ref J1) (pin 2)))
    (net (code 30) (name "Net-(J1-Pad1)")
      (node (ref J1) (pin 1)))
    (net (code 31) (name "Net-(D2-Pad2)")
      (node (ref D2) (pin 2))
      (node (ref J2) (pin 1)))
    (net (code 32) (name "Net-(J1-Pad5)")
      (node (ref J1) (pin 5))
      (node (ref J3) (pin 1)))
    (net (code 33) (name "Net-(D2-Pad1)")
      (node (ref R2) (pin 1))
      (node (ref D2) (pin 1)))
    (net (code 34) (name "Net-(D1-Pad1)")
      (node (ref D1) (pin 1))
      (node (ref R1) (pin 1)))))