EESchema Schematic File Version 4
LIBS:3A-sound-shield-cache
EELAYER 26 0
EELAYER END
$Descr A4 11693 8268
encoding utf-8
Sheet 1 1
Title ""
Date ""
Rev ""
Comp ""
Comment1 ""
Comment2 ""
Comment3 ""
Comment4 ""
$EndDescr
$Comp
L Connector:Conn_01x08_Male J1
U 1 1 5CC166AE
P 3100 1900
F 0 "J1" H 3206 2378 50  0000 C CNN
F 1 "Conn_01x08_Male" H 3206 2287 50  0000 C CNN
F 2 "Connector_PinHeader_2.54mm:PinHeader_1x08_P2.54mm_Vertical" H 3100 1900 50  0001 C CNN
F 3 "~" H 3100 1900 50  0001 C CNN
	1    3100 1900
	1    0    0    -1  
$EndComp
$Comp
L Connector:Conn_01x10_Male J2
U 1 1 5CC1676E
P 3100 3150
F 0 "J2" H 3206 3728 50  0000 C CNN
F 1 "Conn_01x10_Male" H 3206 3637 50  0000 C CNN
F 2 "Connector_PinHeader_2.54mm:PinHeader_1x10_P2.54mm_Vertical" H 3100 3150 50  0001 C CNN
F 3 "~" H 3100 3150 50  0001 C CNN
	1    3100 3150
	1    0    0    -1  
$EndComp
$Comp
L Connector:Conn_01x08_Male J5
U 1 1 5CC167CC
P 5200 3050
F 0 "J5" H 5306 3528 50  0000 C CNN
F 1 "Conn_01x08_Male" H 5306 3437 50  0000 C CNN
F 2 "Connector_PinHeader_2.54mm:PinHeader_1x08_P2.54mm_Vertical" H 5200 3050 50  0001 C CNN
F 3 "~" H 5200 3050 50  0001 C CNN
	1    5200 3050
	1    0    0    -1  
$EndComp
$Comp
L power:GND #PWR01
U 1 1 5CC16AC3
P 3550 3500
F 0 "#PWR01" H 3550 3250 50  0001 C CNN
F 1 "GND" H 3555 3327 50  0000 C CNN
F 2 "" H 3550 3500 50  0001 C CNN
F 3 "" H 3550 3500 50  0001 C CNN
	1    3550 3500
	1    0    0    -1  
$EndComp
Wire Wire Line
	3300 3350 3550 3350
Wire Wire Line
	3550 3350 3550 3500
$Comp
L Connector:Conn_Coaxial J3
U 1 1 5CC16B8A
P 3750 2000
F 0 "J3" H 3849 1976 50  0000 L CNN
F 1 "TE_1-1634612-0" H 3849 1885 50  0000 L CNN
F 2 "1-1634612-0:TE_1-1634612-0" H 3750 2000 50  0001 C CNN
F 3 " ~" H 3750 2000 50  0001 C CNN
	1    3750 2000
	1    0    0    -1  
$EndComp
$Comp
L power:GND #PWR02
U 1 1 5CC16C26
P 3750 2350
F 0 "#PWR02" H 3750 2100 50  0001 C CNN
F 1 "GND" H 3755 2177 50  0000 C CNN
F 2 "" H 3750 2350 50  0001 C CNN
F 3 "" H 3750 2350 50  0001 C CNN
	1    3750 2350
	1    0    0    -1  
$EndComp
Wire Wire Line
	3750 2200 3750 2350
Wire Wire Line
	3300 2000 3550 2000
$Comp
L Device:R R2
U 1 1 5CC16DBA
P 4350 3350
F 0 "R2" H 4420 3396 50  0000 L CNN
F 1 "330R" H 4420 3305 50  0000 L CNN
F 2 "Resistor_THT:R_Axial_DIN0207_L6.3mm_D2.5mm_P10.16mm_Horizontal" V 4280 3350 50  0001 C CNN
F 3 "~" H 4350 3350 50  0001 C CNN
	1    4350 3350
	1    0    0    -1  
$EndComp
$Comp
L Device:R R1
U 1 1 5CC16E40
P 4000 3450
F 0 "R1" H 4070 3496 50  0000 L CNN
F 1 "330R" H 4070 3405 50  0000 L CNN
F 2 "Resistor_THT:R_Axial_DIN0207_L6.3mm_D2.5mm_P10.16mm_Horizontal" V 3930 3450 50  0001 C CNN
F 3 "~" H 4000 3450 50  0001 C CNN
	1    4000 3450
	1    0    0    -1  
$EndComp
$Comp
L Device:LED D2
U 1 1 5CC16ED6
P 4350 2900
F 0 "D2" V 4388 2783 50  0000 R CNN
F 1 "Red" V 4297 2783 50  0000 R CNN
F 2 "LED_THT:LED_D5.0mm" H 4350 2900 50  0001 C CNN
F 3 "~" H 4350 2900 50  0001 C CNN
	1    4350 2900
	0    -1   -1   0   
$EndComp
$Comp
L Device:LED D1
U 1 1 5CC16F91
P 4000 3000
F 0 "D1" V 4038 2883 50  0000 R CNN
F 1 "White" V 3947 2883 50  0000 R CNN
F 2 "LED_THT:LED_D5.0mm" H 4000 3000 50  0001 C CNN
F 3 "~" H 4000 3000 50  0001 C CNN
	1    4000 3000
	0    -1   -1   0   
$EndComp
$Comp
L power:GND #PWR03
U 1 1 5CC16FBF
P 4000 3700
F 0 "#PWR03" H 4000 3450 50  0001 C CNN
F 1 "GND" H 4005 3527 50  0000 C CNN
F 2 "" H 4000 3700 50  0001 C CNN
F 3 "" H 4000 3700 50  0001 C CNN
	1    4000 3700
	1    0    0    -1  
$EndComp
$Comp
L power:GND #PWR04
U 1 1 5CC16FDC
P 4350 3700
F 0 "#PWR04" H 4350 3450 50  0001 C CNN
F 1 "GND" H 4355 3527 50  0000 C CNN
F 2 "" H 4350 3700 50  0001 C CNN
F 3 "" H 4350 3700 50  0001 C CNN
	1    4350 3700
	1    0    0    -1  
$EndComp
Wire Wire Line
	3300 2750 4350 2750
Wire Wire Line
	4350 3050 4350 3200
Wire Wire Line
	4350 3500 4350 3700
Wire Wire Line
	4000 3600 4000 3700
Wire Wire Line
	4000 3150 4000 3300
Wire Wire Line
	4000 2850 3300 2850
$Comp
L Connector:Conn_01x06_Male J4
U 1 1 5CC17598
P 5200 1950
F 0 "J4" H 5306 2328 50  0000 C CNN
F 1 "Conn_01x06_Male" H 5306 2237 50  0000 C CNN
F 2 "Connector_PinHeader_2.54mm:PinHeader_1x06_P2.54mm_Vertical" H 5200 1950 50  0001 C CNN
F 3 "~" H 5200 1950 50  0001 C CNN
	1    5200 1950
	1    0    0    -1  
$EndComp
$Comp
L Switch:SW_SPDT SW1
U 1 1 5CC175EF
P 5950 2050
F 0 "SW1" H 5950 2335 50  0000 C CNN
F 1 "SSA-12" H 5950 2244 50  0000 C CNN
F 2 "custom-lib:SSA-12" H 5950 2050 50  0001 C CNN
F 3 "" H 5950 2050 50  0001 C CNN
	1    5950 2050
	1    0    0    -1  
$EndComp
$Comp
L power:GND #PWR07
U 1 1 5CC17655
P 6300 2250
F 0 "#PWR07" H 6300 2000 50  0001 C CNN
F 1 "GND" H 6305 2077 50  0000 C CNN
F 2 "" H 6300 2250 50  0001 C CNN
F 3 "" H 6300 2250 50  0001 C CNN
	1    6300 2250
	1    0    0    -1  
$EndComp
$Comp
L power:VCC #PWR06
U 1 1 5CC1773B
P 6300 1800
F 0 "#PWR06" H 6300 1650 50  0001 C CNN
F 1 "VCC" H 6317 1973 50  0000 C CNN
F 2 "" H 6300 1800 50  0001 C CNN
F 3 "" H 6300 1800 50  0001 C CNN
	1    6300 1800
	1    0    0    -1  
$EndComp
Wire Wire Line
	6150 1950 6300 1950
Wire Wire Line
	6300 1950 6300 1800
Wire Wire Line
	6150 2150 6300 2150
Wire Wire Line
	6300 2150 6300 2200
Wire Wire Line
	5750 2050 5400 2050
$Comp
L power:VCC #PWR05
U 1 1 5CC179C5
P 5700 3000
F 0 "#PWR05" H 5700 2850 50  0001 C CNN
F 1 "VCC" H 5717 3173 50  0000 C CNN
F 2 "" H 5700 3000 50  0001 C CNN
F 3 "" H 5700 3000 50  0001 C CNN
	1    5700 3000
	1    0    0    -1  
$EndComp
Wire Wire Line
	5400 3050 5700 3050
Wire Wire Line
	5700 3050 5700 3000
$Comp
L power:PWR_FLAG #FLG0101
U 1 1 5CC17C49
P 6300 1950
F 0 "#FLG0101" H 6300 2025 50  0001 C CNN
F 1 "PWR_FLAG" V 6300 2078 50  0000 L CNN
F 2 "" H 6300 1950 50  0001 C CNN
F 3 "~" H 6300 1950 50  0001 C CNN
	1    6300 1950
	0    1    1    0   
$EndComp
Connection ~ 6300 1950
$Comp
L power:PWR_FLAG #FLG0102
U 1 1 5CC17C79
P 6300 2200
F 0 "#FLG0102" H 6300 2275 50  0001 C CNN
F 1 "PWR_FLAG" V 6300 2328 50  0000 L CNN
F 2 "" H 6300 2200 50  0001 C CNN
F 3 "~" H 6300 2200 50  0001 C CNN
	1    6300 2200
	0    1    1    0   
$EndComp
Connection ~ 6300 2200
Wire Wire Line
	6300 2200 6300 2250
NoConn ~ 3300 1600
NoConn ~ 3300 1700
NoConn ~ 3300 1800
NoConn ~ 3300 1900
NoConn ~ 3300 2100
NoConn ~ 3300 2200
NoConn ~ 3300 2300
NoConn ~ 3300 2950
NoConn ~ 3300 3050
NoConn ~ 3300 3150
NoConn ~ 3300 3250
NoConn ~ 3300 3450
NoConn ~ 3300 3550
NoConn ~ 3300 3650
NoConn ~ 5400 2750
NoConn ~ 5400 2850
NoConn ~ 5400 2950
NoConn ~ 5400 3150
NoConn ~ 5400 3250
NoConn ~ 5400 3350
NoConn ~ 5400 3450
NoConn ~ 5400 1750
NoConn ~ 5400 1850
NoConn ~ 5400 1950
NoConn ~ 5400 2150
NoConn ~ 5400 2250
$EndSCHEMATC
